{
    "p_01_08": {},
    "p_01_09": {},
    "p_01_10": {},
    "p_01_11": {},
    "p_01_12": {},
    "p_01_13": {},
    "p_01_14": {},
    "p_02_07": {},
    "p_02_08": {},
    "p_02_09": {},
    "p_02_10": {},
    "p_02_11": {},
    "p_02_12": {},
    "p_02_13": {},
    "p_02_14": {},
    "p_02_15": {},
    "p_03_07": {},
    "p_03_08": {},
    "p_03_09": {},
    "p_03_10": {},
    "p_03_11": {},
    "p_03_12": {},
    "p_03_13": {},
    "p_03_14": {},
    "p_03_15": {},
    "p_04_07": {},
    "p_04_08": {},
    "p_04_09": {},
    "p_04_10": {},
    "p_04_11": {},
    "p_04_12": {},
    "p_04_13": {},
    "p_04_14": {},
    "p_04_15": {},
    "p_05_07": {},
    "p_05_08": {},
    "p_05_09": {},
    "p_05_10": {},
    "p_05_11": {},
    "p_05_12": {},
    "p_05_13": {},
    "p_05_14": {},
    "p_05_15": {},
    "p_06_07": {},
    "p_06_08": {},
    "p_06_09": {},
    "p_06_10": {},
    "p_06_11": {},
    "p_06_12": {},
    "p_06_13": {},
    "p_06_14": {},
    "p_06_15": {},
    "p_07_08": {},
    "p_07_09": {},
    "p_07_10": {},
    "p_07_11": {},
    "p_07_12": {},
    "p_07_13": {},
    "p_07_14": {}
  }
  